﻿,sendMessage,안녕하세요 투 상품을 추천해 드리겠습니다.,
,sendMessage,먼저 투자 포트폴리오 작성을 시작하겠습니다.,,
,askAndListen,age,Integer,나이가 어떻게 되세요?,
,askAndListen,period,String,자금이 필요한 시기는 언제 입니까?,
IF,JumpToLabel_switch,Tmp,조건표현식 1,A,조건표현식 2,B,조건표현식 3,C,조건표현식 4,D,default,default,
A,sendMessage,A 상품을 추천드립니다.,,
,JumpToLabel,END,,
B,sendMessage,B 상품을 추천드립니다.,,
,JumpToLabel,END,,
C,sendMessage,C 상품을 추천드립니다.,,
,JumpToLabel,END,,
D,sendMessage,D 상품을 추천드립니다.,,자
,JumpToLabel,END,,
default,sendMessage,원하시는 상품을 찾지 못했습니다.,,
,JumpToLabel,END,,